Uni-moderators – Music_meta_book
…
#The Harvester
t1<-get_estimate(model = mLE, contra = contra_LE, moderator = Lifestage_exposure)

#The Cleaner
t2 <- clean_unique_contrasts(full_results_table = t1, level_count = 6)

t2

# A tibble: 21 × 7
   Levels              Estimate Lower_CI Upper_CI  P_value Lower_PI Upper_PI
   <chr>                  <dbl>    <dbl>    <dbl>    <dbl>    <dbl>    <dbl>
 1 Adolescent            0.223   -0.0913    0.537 0.164      -0.834    1.28 
 2 Adult                 0.135   -0.145     0.416 0.342      -0.912    1.18 
 3 Juvenile              0.130   -0.244     0.503 0.495      -0.947    1.21 
 4 Mixed                 0.0556  -0.174     0.285 0.634      -0.980    1.09 
 5 Unclear               0.344    0.0207    0.666 0.0371     -0.716    1.40 
 6 Young adult           0.301    0.125     0.477 0.000850   -0.724    1.33 
 7 Adult-Adolescent     -0.0876  -0.446     0.271 0.631      -1.16     0.984
 8 Juvenile-Adolescent  -0.0934  -0.494     0.307 0.646      -1.18     0.993
 9 Mixed-Adolescent     -0.167   -0.549     0.214 0.389      -1.25     0.912
10 Unclear-Adolescent    0.121   -0.303     0.544 0.576      -0.974    1.22 
# ℹ 11 more rows
…
