Uni-moderator (lnVR) – Music_meta_book
…
#The Harvester
t1<-get_estimate(model = mLE, contra = contra_LE, moderator = Lifestage_exposure)

#The Cleaner
t2 <- clean_unique_contrasts(full_results_table = t1, level_count = 6)

t2

# A tibble: 21 × 7
   Levels              Estimate Lower_CI Upper_CI P_value Lower_PI Upper_PI
   <chr>                  <dbl>    <dbl>    <dbl>   <dbl>    <dbl>    <dbl>
 1 Adolescent            0.739     0.101  1.38     0.0233    -1.58     3.05
 2 Adult                -0.0508   -0.576  0.475    0.849     -2.34     2.24
 3 Juvenile              0.0347   -0.962  1.03     0.945     -2.40     2.47
 4 Mixed                -0.112    -0.583  0.359    0.640     -2.39     2.16
 5 Unclear               0.192    -0.551  0.936    0.611     -2.15     2.54
 6 Young adult           0.171    -0.136  0.479    0.273     -2.08     2.42
 7 Adult-Adolescent     -0.790    -1.59   0.00935  0.0527    -3.15     1.58
 8 Juvenile-Adolescent  -0.704    -1.83   0.417    0.217     -3.20     1.79
 9 Mixed-Adolescent     -0.851    -1.64  -0.0584   0.0355    -3.21     1.51
10 Unclear-Adolescent   -0.547    -1.52   0.428    0.270     -2.98     1.88
# ℹ 11 more rows
…
